[
  {
   "course": "AERSP 055",
   "courseName": "Space Science and Technology",
   "credits": 3,
   "description": "The science and technology of space exploration and exploitation; physical principles; research and development; history, space policy, and social implications.",
   "type": "(GN)"
  },
  {
   "course": "AFR 105",
   "courseName": "Environments of Africa: Geology and Climate Change",
   "credits": 3,
   "description": "Significant natural features of Africa as related to human endeavor; case studies include the Nile, climate change, natural resources.",
   "type": "(GN;IL)"
  },
  {
   "course": "AGECO 121",
   "courseName": "Plant Stress: It's Not Easy Being Green",
   "credits": 3,
   "description": "The many hazards faced by plants and the dynamic ways that plants respond to these problems are examined.",
   "type": "(GN)"
  },
  {
   "course": "AGECO 122",
   "courseName": "Atmospheric Environment: Growing in the Wind",
   "credits": 3,
   "description": "Dynamic effects of weather on ecosystems and habitation of Earth.",
   "type": "(GN)"
  },
  {
   "course": "AGECO 134",
   "courseName": "Sustainable Agriculture Science and Policy",
   "credits": 3,
   "description": "The science, socio-economics, and politics of managing food and fiber production systems. Sustainability implications of current practices and future options.",
   "type": "(GN)"
  },
  {
   "course": "AGECO 144",
   "courseName": "Principles and Practices of Organic Agriculture",
   "credits": 3,
   "description": "An introduction to the science, principles and practices of organic agricultural systems for food production.",
   "type": "(GN)"
  },
  {
   "course": "AN SC 100",
   "courseName": "Introduction to Animal Industries",
   "credits": 3,
   "description": "Students will study the biology, production systems, terminology, and emerging issues of the N. American animal industries.",
   "type": "(GN)"
  },

  {
   "course": "ANTH 021",
   "courseName": "Introductory Biological Anthropology",
   "credits": 3,
   "description": "The role of human biology and evolution in culture, society, and behavior.",
   "type": "(GN)"
  },
  {
   "course": "ANTH 022",
   "courseName": "Humans as Primates",
   "credits": 3,
   "description": "The biological basis of human behavior within the context of primate biology, behavior, and evolution.",
   "type": "(GN)"
  },
  {
   "course": "ANTH 216",
   "courseName": "Sex and Evolution",
   "credits": 3,
   "description": "Introduction to evolutionary theory and its application to understanding human sexuality and sex differences.",
   "type": "(GN;GS)"
  },
  {
   "course": "ANTH 218",
   "courseName": "Genes, Evolution and Behavior",
   "credits": 4,
   "description": "This course explores how genes influence our traits and how our traits evolve, with special emphasis on behavior.",
   "type": "(GN)"
  },
  {
   "course": "ANTH 260H",
   "courseName": "Building the Human Animal",
   "credits": 3,
   "description": "An exploration of how the same genetic and developmental properites that shape animal evolution produced the unique human form.",
   "type": "(GN)"
  },
  {
   "course": "ASTRO 001",
   "courseName": "Astronomical Universe",
   "credits": 3,
   "description": "The development of modern understanding of the astronomical universe from planets and stars to galaxies and cosmology. Student who have passed ASTRO 005, ASTRO 006, or ASTRO 010 may not take this course for credit.",
   "type": "(GN)"
  },
  {
   "course": "ASTRO 001H",
   "courseName": "Astronomical Universe",
   "credits": 3,
   "description": "The development of modern understanding of the astronomical universe from planets and stars to galaxies and cosmology. Students who have passed ASTRO 005, ASTRO 006, or ASTRO 010 may not take this course for credit.",
   "type": "(GN)"
  },
  {
   "course": "ASTRO 010",
   "courseName": "Elementary Astronomy",
   "credits": 2,
   "description": "Introductory survey of modern astronomy from planets and stars to galaxies and the universe. Students who have passed ASTRO 001, ASTRO 005, or ASTRO 006 may not take this course for credit. Students may not receive General Education credit for ASTRO 010 unless they also take ASTRO 011.",
   "type": "(GN)"
  },


  {
   "course": "B M B 001",
   "courseName": "Understanding the Bases of Human Disease",
   "credits": 3,
   "description": "A broad survey of the molecular and cellular factors that contribute to an understanding of selected human diseases.",
   "type": "(GN)"
  },
  {
   "course": "BI SC 001",
   "courseName": "Structure and Function of Organisms",
   "credits": 3,
   "description": "An exploration of how cellular structures and processes contribute to life and how life displays unity even in its diversity. Students who have passed BIOL 027, 110, or 141 may not schedule this course.",
   "type": "(GN)"
  },
  {
   "course": "BI SC 002",
   "courseName": "Genetics, Ecology, and Evolution",
   "credits": 3,
   "description": "The study of how living organisms inherit their traits, how plants and animals evolved, and how they now interact. Students who have passed BIOL 033, 133, 110, 220W, or 222 may not schedule this course.",
   "type": "(GN)"
  },
  {
   "course": "BI SC 003",
   "courseName": "Environmental Science",
   "credits": 3,
   "description": "Kinds of environments; past and present uses and abuses of natural resources; disposal of human wastes; prospects for the future. Students who have passed BIOL 220 or any other upper-level ecology course in biology may not schedule this course.",
   "type": "(GN)"
  },
  {
   "course": "BI SC 004",
   "courseName": "Human Body: Form and Function",
   "credits": 3,
   "description": "A general survey of structure and function--from conception, through growth and reproduction, to death. Students who have passed BIOL 129 and 141 may not schedule this course.",
   "type": "(GN)"
  },
  {
   "course": "BIOL 011",
   "courseName": "Introductory Biology I",
   "credits": 3,
   "description": "An introduction to fundamental biological topics (including cells, energy transduction, genetics, evolution, organismal structure/function, ecology) for non-majors biology-related fields.",
   "type": "(GN)"
  },
  {
   "course": "BIOL 110",
   "courseName": "Biology: Basic Concepts and Biodiversity",
   "credits": 4,
   "description": "A study of the evolution of the major groups of organisms including the fundamental concepts of biology.",
   "type": "(GN)"
  },
  {
   "course": "BIOL 110H",
   "courseName": "Honors Biology: Basic Concepts and Biodiversity",
   "credits": 4,
   "description": "Honors study of the evolution of the major groups of organisms including the fundamental concepts of biology.",
   "type": "(GN)"
  },
  {
   "course": "BIOL 110L",
   "courseName": "Biology: Basic Concepts and Biodiversity",
   "credits": 4,
   "description": "A study of the evolution of the major groups of organisms including the fundamental concepts of biology.",
   "type": "(GN)"
  },
  {
   "course": "BIOL 110P",
   "courseName": "Biology: Basic Concepts and Biodiversity A study of the evolution of the major groups of organisms including the fundamental concepts of biology.",
   "type": "(GN)"
  },
  {
   "course": "BIOL 110S",
   "courseName": "Biology: Basic Concepts and Biodiversity",
   "credits": 4,
   "description": "A study of the evolution of the major groups of organisms including the fundamental concepts of biology. This course also fulfills the First-Year Seminar requirements.",
   "type": "(GN)"
  },
  {
   "course": "BIOL 120A",
   "courseName": "Plants, Places, and People",
   "credits": 3,
   "description": "Useful and dangerous plants; historical (archaeological), cultural (ethnological), and economic (anthropocentric) aspects, including structural and chemical characteristics of botanical importance. Students who have passed BIOL (PPATH;S T S) 424 may not schedule this course.",
   "type": "(GN;US;IL)"
  },
  {
   "course": "BIOL 127",
   "courseName": "Introduction to Plant Biology",
   "credits": 3,
   "description": "Cellular structure and organization; physiological processes; classification; reproduction and development; relationship of plant groups. Students who have passed BIOL 240W may not schedule this course.",
   "type": "(GN)"
  },
  {
   "course": "BIOL 129",
   "courseName": "Mammalian Anatomy",
   "credits": 4,
   "description": "Anatomy of a mammal, with special reference to that of man. Students who have passed BIOL 421 may not schedule this course.",
   "type": "(GN)"
  },
  {
   "course": "BIOL 129L",
   "courseName": "Mammalian Anatomy",
   "credits": 4,
   "description": "Anatomy of a mammal, with special reference to that of man. Students who have passed BIOL 421 may not schedule this course.",
   "type": "(GN)"
  },
  {
   "course": "BIOL 129P",
   "credits": 4,
   "courseName": "Mammalian Anatomy Anatomy of a mammal, with special reference to that of man. Students who have passed BIOL 421 may not schedule this course.",
   "type": "(GN)"
  },
  {
   "course": "BIOL 133",
   "courseName": "Genetics and Evolution of the Human Species",
   "credits": 3,
   "description": "Human heredity and evolution, individual and social implications. The course is for non-majors; students who have passed BIOL 222, 230W, B M B 251 or any upper-division biology course may not schedule this course.",
   "type": "(GN)"
  },
  {
   "course": "BIOL 141",
   "courseName": "Introductory Physiology",
   "credits": 3,
   "description": "Explanation of the normal structure and function of the animal body, with special emphasis on human body systems. Students who have passed BIOL 472 may not schedule this course.",
   "type": "(GN)"
  },
  {
   "course": "BIOL 155",
   "courseName": "Introduction to the Biology of Aging",
   "credits": 3,
   "description": "Examination of human aging from a biological perspective. Population demographics, physiological and pathological changes, and healthy lifestyles are discussed. Students who have passed BIOL 409 may not schedule this course.",
   "type": "(GN)"
  },
  {
   "course": "BIOL 177",
   "courseName": "Biology of Sex",
   "credits": 3,
   "description": "Basic structure and function of the human reproductive system. Physiology of gametogenesis, fertilization, contraception, gestation, parturition, lactation, and sexual behavior.",
   "type": "(GN)"
  },
  {
   "course": "CHEM 001",
   "courseName": "Molecular Science",
   "credits": 3,
   "description": "Selected concepts and topics designed to give non-science majors an appreciation for how chemistry impacts everyday life. Students who have received credit for CHEM 003, 101, or 110 may not schedule this course.",
   "type": "(GN)"
  },
  {
   "course": "CHEM 003",
   "courseName": "Molecular Science With Laboratory",
   "credits": 3,
   "description": "Selected concepts and topics designed to give non-science majors an appreciation for how chemistry impacts everyday life. Students who have received credit for CHEM 001, 101, or 110 may not schedule this course.",
   "type": "(GN)"
  },
  {
   "course": "CHEM 005",
   "courseName": "Kitchen Chemistry",
   "credits": 3,
   "description": "An elementary discussion of the chemistry associated with foods and cooking.",
   "type": "(GN)"
  },
  {
   "course": "CHEM 101",
   "credits": 3,
   "courseName": "Introductory Chemistry (2-3) Selected principles and applications of chemistry. Prior study of chemistry is not assumed. Students may take only one course for General Education credit from CHEM 101 or CHEM 110. Students may take only one course for General Education credit from CHEM 101 GN or CHEM 110 GN.",
   "type": "(GN)"
  },
  {
   "course": "CHEM 106",
   "courseName": "Introductory and General Chemistry",
   "credits": 5,
   "description": "Introductory chemistry and chemical principles for students who are required to take additional chemistry, e.g., CHEM 112, but are unprepared for CHEM 110. GN To receive Natural Sciences General Education",
   "type": "(GN)"
  },
  {
   "course": "CHEM 110",
   "courseName": "Chemical Principles I",
   "credits": 3,
   "description": "Basic concepts and quantitative relations. Students may take only one course for General Education credit from CHEM 110 or CHEM 101. GN To receive Natural Sciences General Education",
   "type": "(GN)"
  },
  {
   "course": "CHEM 110H",
   "courseName": "Chemical Principles I - Honors",
   "credits": 3,
   "description": "Basic concepts and quantitative relations of chemistry at a level appropriate for students with advanced backgrounds and talents. Students may take only one course for General Education credit from CHEM 110 or CHEM 101. GN to receive Natural Sciences General Education",
   "type": "(GN)"
  },
  {
   "course": "CHEM 111",
   "courseName": "Experimental Chemistry I",
   "credits": 1,
   "description": "Introduction to quantitative experimentation in chemistry. GN To receive Natural Sciences General Education",
   "type": "(GN)"
  },
  {
   "course": "CHEM 112",
   "courseName": "Chemical Principles II",
   "credits": 3,
   "description": "Continuation of CHEM 110, including an introduction to the chemistry of the elements. GN To receive Natural Sciences General Education",
   "type": "(GN)"
  },
  {
   "course": "CHEM 112H",
   "courseName": "Chemical Principles II - Honors",
   "credits": 3,
   "description": "Continuation of CHEM 110, including an introduction to the chemistry of the elements. GN to receive Natural Sciences General Education",
   "type": "(GN)"
  },
  {
   "course": "CHEM 113",
   "courseName": "Experimental Chemistry II",
   "credits": 1,
   "description": "Continuation of CHEM 111, with emphasis on topics related to CHEM 112. GN To receive Natural Sciences General Education",
   "type": "(GN)"
  },
  {
   "course": "CHEM 113B",
   "courseName": "Experimental Chemistry II--Bioscience",
   "credits": 1,
   "description": "A continuation of CHEM 111 with emphasis on topics related to CHEM 112 in the context of bioscience. GN To receive Natural Sciences General Education",
   "type": "(GN)"
  },
  {
   "course": "CHEM 233",
   "courseName": "Chemistry and Literature",
   "credits": 3,
   "description": "Exploration of key concepts of chemistry, the reciprocal influence of chemistry and literature throughout history, and the relationship of science to society, culture, and values.",
   "type": "(GH;GN)"
  },

  {
   "course": "E R M 210",
   "courseName": "Environmental Factors and Their Effect on Your Food Supply",
   "credits": 3,
   "description": "An exploration of how urban environmental problems influence our ability to obtain food and natural resources.",
   "type": "(GN)"
  },
  {
   "course": "EARTH 002",
   "courseName": "The Earth System and Global Change",
   "credits": 3,
   "description": "An interdisciplinary introduction to the processes, interactions and evolution of the earth's biosphere, geosphere and hydrosphere.",
   "type": "(GN)"
  },
  {
   "course": "EARTH 100",
   "courseName": "Environment Earth",
   "credits": 3,
   "description": "Natural processes and their relationship to anthropogenic influences. General principles of global cycles and the role they play in natural hazards, global warming, ozone depletion, etc.",
   "type": "(GN)"
  },
  {
   "course": "EARTH 100H",
   "courseName": "Environment Earth: Environment and Energy",
   "credits": 3,
   "description": "Examination of climate change and energy issues.",
   "type": "(GN)"
  },
  {
   "course": "EARTH 101",
   "courseName": "Natural Disasters: Hollywood vs. Reality",
   "credits": 3,
   "description": "Analysis of the causes and consequences of natural disasters; comparison of popular media portrayal of disasters with perspective from scientific research.",
   "type": "(GN;US)"
  },
  {
   "course": "EARTH 103",
   "courseName": "Earth in the Future: Predicting Climate Change and Its Impacts Over the Next Century",
   "credits": 3,
   "description": "Climate predictions for the coming century are utilized to examine potential impacts on regions, sectors of society, and natural ecosystems.",
   "type": "(GN)"
  },
  {
   "course": "EARTH 104",
   "courseName": "Climate, Energy and Our Future",
   "credits": 3,
   "description": "This course presents the past, present, and possible future response of Earth's climate to human energy use.",
   "type": "(GN)"
  },
  {
   "course": "EARTH 105",
   "courseName": "Environments of Africa: Geology and Climate Change",
   "credits": 3,
   "description": "Significant natural features of Africa as related to human endeavor; case studies include the Nile, climate change, and natural resources.",
   "type": "(GN;IL)"
  },
  {
   "course": "EARTH 106",
   "courseName": "The African Continent: Earthquakes, Tectonics and Geology",
   "credits": 3,
   "description": "Study of earthquakes and seismic waves to learn about the geology and plate tectonics of the African continent.",
   "type": "(GN)"
  },
  {
   "course": "EARTH 107",
   "courseName": "Coastal Processes, Hazards and Society",
   "credits": 3,
   "description": "Processes responsible for formation, diversity, and evolution of coastal landscapes; socioeconomic and policy responses to changes in coastal regions.",
   "type": "(GN)"
  },
  {
   "course": "EARTH 111",
   "courseName": "Water: Science and Society",
   "credits": 3,
   "description": "Investigation of water behavior and occurence, its relevance to life, human activities, politics, and society.",
   "type": "(GN;US)"
  },
  {
   "course": "EARTH 150",
   "courseName": "Dinosaur Extinctions and Other Controversies",
   "credits": 3,
   "description": "Dinosaur extinctions and other major and controversial events in the history of life.",
   "type": "(GN)"
  },

  {
   "course": "EGEE 101",
   "courseName": "Energy and the Environment",
   "credits": 3,
   "description": "Energy utilization and technological development, energy resources, conversion and consequences on the local and global environment, and future energy alternatives.",
   "type": "(GN)"
  },
  {
   "course": "EGEE 101A",
   "courseName": "Energy and the Environment",
   "credits": 3,
   "description": "Energy utilization and technological development, energy resources, conversion and consequences on the local and global environment, and future energy alternatives.",
   "type": "(GN;IL)"
  },
  {
   "course": "EGEE 101H",
   "courseName": "Energy and the Environment",
   "credits": 3,
   "description": "Energy utilization and technological development, energy resources, conversion and consequences on the local and global environment, and future energy alternatives.",
   "type": "(GN)"
  },
  {
   "course": "EGEE 102",
   "courseName": "Energy Conservation for Environmental Protection",
   "credits": 3,
   "description": "Exposure to energy efficiency in day-to-day life to save money and energy, and thereby protect the environment.",
   "type": "(GN)"
  },
  {
   "course": "EGEE 102H",
   "courseName": "Energy Conservation for Environmental Protection",
   "credits": 3,
   "description": "Exposure to energy efficiency in day-to-day life to save money and energy, and thereby protect the environment.",
   "type": "(GN)"
  },
  {
   "course": "EGEE 110",
   "courseName": "Safety Science for the Rest of Your Life",
   "credits": 3,
   "description": "Survey of applications and technologies associated with safety in our every day life with associated review of scientific principles and economic, social and political impacts.",
   "type": "(GN)"
  },
  {
   "course": "EGEE 210",
   "courseName": "Technological Legacy of Pennsylvania Coal",
   "credits": 3,
   "description": "Survey of coal technologies with a review of scientific principles and economic, social, and political impacts.",
   "type": "(GN)"
  },
  {
   "course": "EM SC 121",
   "courseName": "Minerals and Modern Society",
   "credits": 3,
   "description": "Production and use of mineral resources in modern society with an emphasis on the interrelationships and their effect on the Earth system.",
   "type": "(GN)"
  },
  {
   "course": "EM SC 150",
   "courseName": "Out of the Fiery Furnace",
   "credits": 3,
   "description": "A history of materials, energy and man, with emphasis on their interrelationships. For nontechnical students.",
   "type": "(GN;IL)"
  },
  {
   "course": "ENT 202",
   "courseName": "The Insect Connection",
   "credits": 3,
   "description": "An introduction to the diversity of insects and the ways in which they interact with humans and impact our world.",
   "type": "(GN)"
  },
  {
   "course": "ENT 222",
   "courseName": "Honey Bees and Humans",
   "credits": 3,
   "description": "This course explores the unique biology and behavior of bees, examining our relationship with them through time and across cultures.",
   "type": "(GN)"
  },

  {
   "course": "FRNSC 100",
   "courseName": "Introduction to Forensic Science",
   "credits": 3,
   "description": "Introduction forensic science.",
   "type": "(GN)"
  },
  {
   "course": "FRNSC 200",
   "courseName": "Introduction to Crime Scene Investigation",
   "credits": 3,
   "description": "This course offers an exploration of the science, management, and investigative techniques for the field of crime scene investigation.",
   "type": "(GN)"
  },
  {
   "course": "GEOG 010",
   "courseName": "Physical Geography: An Introduction",
   "credits": 3,
   "description": "Survey and synthesis of processes creating geographical patterns of natural resources, with application of basic environmental processes in resource management.",
   "type": "(GN)"
  },
  {
   "course": "GEOG 110",
   "courseName": "Climates of the World",
   "credits": 3,
   "description": "Introduction to climatology, including principal processes of the global climatic system and their variation over space and time.",
   "type": "(GN)"
  },
  {
   "course": "GEOG 115",
   "courseName": "Landforms of the World",
   "credits": 3,
   "description": "Distribution of the world's landform features and mineral resources; their characteristics, causes, and significance. Practicum includes correlated field trips and laboratory studies.",
   "type": "(GN)"
  },
  {
   "course": "GEOSC 002",
   "courseName": "Historical Geology",
   "credits": 3,
   "description": "History of the earth and its life; fundamentals of evolution, correlation, and paleogeography; practicum includes field trips, study of geologic maps, geologic problems, and fossils, with emphasis on Appalachian geology. (This course includes from one to several field trips for which an additional charge will be made to cover transportation.) This course contains from one to several field trips for which an additional charge will be made to cover transportation.",
   "type": "(GN)"
  },
  {
   "course": "GEOSC 010",
   "courseName": "Geology of the National Parks",
   "credits": 3,
   "description": "Introduction to geology, geological change, and environmental hazards, as seen in the National Parks.",
   "type": "(GN)"
  },
  {
   "course": "GEOSC 020",
   "courseName": "Planet Earth",
   "credits": 3,
   "description": "Nontechnical presentation of earth processes, materials, and landscape. Practicum includes field trips, study of maps, rocks, and dynamic models, introduction to geologic experimentation. (This course includes from one to several field trips for which an additional charge will be made to cover transportation.) This course contains from one to several field trips for which an additional charge will be made to cover transportation.",
   "type": "(GN)"
  },
  {
   "course": "GEOSC 020L",
   "courseName": "Planet Earth",
   "credits": 3,
   "description": "Nontechnical presentation of earth processes, materials, and landscape. Practicum includes field trips, study of maps, rocks, and dynamic models, introduction to geologic experimentation. (This course includes from one to several field trips for which an additional charge will be made to cover transportation.)",
   "type": "(GN)"
  },
  {
   "course": "GEOSC 021",
   "courseName": "Earth and Life: Origin and Evolution",
   "credits": 3,
   "description": "Introduction to the origin and evolution of life on Earth from the perspective of geologic time and the fossil record. This course contains from one to several field trips for which an additional charge will be made to cover transportation.",
   "type": "(GN)"
  },
  {
   "course": "GEOSC 030",
   "courseName": "Volcanoes",
   "credits": 3,
   "description": "Basic concepts in Volcanology and Geosciences are explored through a series of virtual field trips to historic eruptions.",
   "type": "(GN)"
  },
  {
   "course": "GEOSC 040",
   "courseName": "The Sea Around Us",
   "credits": 3,
   "description": "Introduction to marine sciences and the world ocean, including physical, chemical, biological, and geological aspects of oceanography.",
   "type": "(GN)"
  },
  {
   "course": "GEOSC 040L",
   "courseName": "The Sea Around Us",
   "credits": 2,
   "description": "Introduction to marine sciences and the world ocean, including physical, chemical, biological, and geological aspects of oceanography.",
   "type": "(GN)"
  },
  {
   "course": "GEOSC 040P",
   "courseName": "The Sea Around Us",
   "credits": 1,
   "description": "Introduction to marine sciences and the world ocean, including physical, chemical, biological, and geological aspects of oceanography.",
   "type": "(GN)"
  },
  {
   "course": "GEOSC 109H",
   "courseName": "Earthquakes and Society",
   "credits": 3,
   "description": "Introduction to earthquakes and seismology, and their relationship to society, including monitoring for nuclear weapons and seismic hazards.",
   "type": "(GN)"
  },

  {
   "course": "GEOSC 111",
   "courseName": "Forensic Geoscience",
   "credits": 3,
   "description": "Covers fundamental geoscience concepts such as stratigraphy, mineral and soil identification, seismology, and geochemistry within the context of forensic investigation.",
   "type": "(GN)"
  },
  {
   "course": "HORT 101",
   "courseName": "Horticultural Science",
   "credits": 3,
   "description": "Introduction to horticulture with emphasis on plant domestication, morphology, classification, world food crops, commodities, gardens, propagation, and agrochemicals.",
   "type": "(GN)"
  },
  {
   "course": "HORT 150",
   "courseName": "Plants in the Human Context",
   "credits": 3,
   "description": "An introduction to the many fascinating and vital relationships between plants and human society.",
   "type": "(GN)"
  },
  {
   "course": "INART 050",
   "courseName": "The Science of Music",
   "credits": 3,
   "description": "Waves, physics of sound, hearing, musical scales, musical instruments, and room acoustics.",
   "type": "(GN)"
  },
  {
   "course": "MATSE 081",
   "courseName": "Materials in Today's World",
   "credits": 3,
   "description": "A survey of the properties, manufacture, and uses of polymers, ceramics and metals in today's world with emphasis on modern developments and new materials.",
   "type": "(GN;IL)"
  },
  {
   "course": "MATSE 091",
   "courseName": "Polymers, Life and Society",
   "credits": 3,
   "description": "An exploration of the science and use of polymer materials and their impact on society using a case study approach.",
   "type": "(GN)"
  },
  {
   "course": "MATSE 101",
   "courseName": "Energy and the Environment",
   "credits": 3,
   "description": "Energy utilization and technological development, energy resources, conversion and consequences on the local and global environment, and future energy alternatives.",
   "type": "(GN)"
  },
  {
   "course": "MATSE 101A",
   "courseName": "Energy and the Environment",
   "credits": 3,
   "description": "Energy utilization and technological development, energy resources, conversion and consequences on the local and global environment, and future energy alternatives.",
   "type": "(GN;IL)"
  },

  {
   "course": "METEO 002",
   "courseName": "Our Changing Atmosphere: Personal and Societal Consequences",
   "credits": 3,
   "description": "A survey of meteorology emphasizing how the nature of our lives, individually/societally, depends upon atmospheric structure, quality, and processes.",
   "type": "(GN)"
  },
  {
   "course": "METEO 003",
   "courseName": "Introductory Meteorology",
   "credits": 3,
   "description": "Nontechnical treatment of fundamentals of modern meteorology and the effects of weather and climate. A student who took METEO 002 may take the laboratory part of this course for 1 credit only.",
   "type": "(GN)"
  },
  {
   "course": "METEO 004",
   "courseName": "Weather and Risk",
   "credits": 3,
   "description": "Non-technical introduction to the science and historical development of meteorology, and the role of weather forecasting as a tool for risk management by individuals, businesses, and societies.",
   "type": "(GN)"
  },
  {
   "course": "METEO 005",
   "courseName": "Severe and Unusual Weather",
   "credits": 3,
   "description": "Non-technical introduction to the physical processes important in the formation of various severe and unusual weather phenomena.",
   "type": "(GN)"
  },
  {
   "course": "METEO 101",
   "courseName": "Understanding Weather Forecasting",
   "credits": 3,
   "description": "Fundamental principles of synoptic and physical meteorology, satellite and radar imagery, and data analysis in the setting of mid-latitude weather forecasting.",
   "type": "(GN)"
  },
  {
   "course": "METEO 122",
   "courseName": "Atmospheric Environment: Growing in the Wind",
   "credits": 3,
   "description": "Students will learn about the effect of weather on plants, animals, and humans.",
   "type": "(GN)"
  },
  {
   "course": "MICRB 106",
   "courseName": "Elementary Microbiology",
   "credits": 3,
   "description": "Importance of microorganisms in health and disease, agriculture, and industry; descriptive course for students not planning advanced study in microbiology. The combination of MICRB 106 GN and 107 GN must be taken to receive General Education credit in biology. Students must take a combination of MICRB 106 GN and 107 GN to receive General Education credit in biology.",
   "type": "(GN)"
  },

  {
   "course": "PHYS 001",
   "courseName": "The Science of Physics",
   "credits": 3,
   "description": "Historical development and significance of major concepts, with emphasis on the nature of physics and its role in modern life. (For students in non-mathematical fields.)",
   "type": "(GN)"
  },
  {
   "course": "PHYS 010",
   "courseName": "Physics Behind the Headlines",
   "credits": 3,
   "description": "Select topics in modern physics with emphasis on understanding science related articles in the news (For students in non-mathematical fields.)",
   "type": "(GN)"
  },

  {
   "course": "PHYS 150L",
   "courseName": "Technical Physics I",
   "credits": 3,
   "description": "Elementary treatment of topics in mechanics, heat, wave motion, and sound leading toward an understanding of technical applications.",
   "type": "(GN)"
  },
  {
   "course": "PHYS 150P",
   "courseName": "Technical Physics I",
   "credits": 3,
   "description": "Elementary treatment of topics in mechanics, heat, wave motion, and sound leading toward an understanding of technical applications.",
   "type": "(GN)"
  },


  {
   "course": "PHYS 211",
   "courseName": "General Physics: Mechanics",
   "credits": 4,
   "description": "Calculus-based study of the basic concepts of mechanics: motion, force, Newton's laws, energy, collisions, and rotation.",
   "type": "(GN)"
  },
  {
   "course": "PHYS 211H",
   "courseName": "General Physics: Mechanics",
   "credits": 4,
   "description": "Calculus-based study of the basic concepts of mechanics: motion, force, Newton's laws, energy, collisions, rotation, and oscillations.",
   "type": "(GN)"
  },
  {
   "course": "PHYS 211L",
   "courseName": "General Physics: Mechanics (0-4) Calculus-based study of the basic concepts of mechanics: motion, force, Newton's laws, energy, collisions, and rotation. NOTE: UP offers for 0 credits; Altoona offers for 4 credits.",
   "type": "(GN)"
  },
  {
   "course": "PHYS 211R",
   "courseName": "General Physics: Mechanics",
   "credits": 4,
   "description": "Calculus-based study of the basic concepts of mechanics: motion, force, Newton's laws, energy, collisions, and rotation.",
   "type": "(GN)"
  },


  {
   "course": "PHYS 212L",
   "courseName": "General Physics: Electricity and Magnetism (0-4) Calculus-based study of the basic concepts of electricity and magnetism. NOTE: UP offers for 0 credits; Altoona offers for 4 credits.",
   "type": "(GN)"
  },

  {
   "course": "PHYS 213L",
   "courseName": "General Physics: Fluids and Thermal Physics (0) Calculus-based study of the basic concepts of fluids and sound, heat, kinetic theory, and entropy.",
   "type": "(GN)"
  },
  {
   "course": "PHYS 214L",
   "courseName": "General Physics: Wave Motion and Quantum Physics (0) Calculus-based study of the basic concepts of wave motion, geometrical optics, interference phenomena, photons, wave mechanics, and the structure of matter.",
   "type": "(GN)"
  },
  {
   "course": "PHYS 250L",
   "courseName": "Introductory Physics I (0-4) Selected topics in mechanics, heat, and sound.",
   "type": "(GN)"
  },
  {
   "course": "PHYS 250P",
   "courseName": "Introductory Physics I (0) Selected topics in mechanics, heat, and sound.",
   "type": "(GN)"
  },
  {
   "course": "PHYS 251L",
   "courseName": "Introductory Physics II (0-4) Selected topics in light, electricity, and magnetism.",
   "type": "(GN)"
  },
  {
   "course": "PHYS 251P",
   "courseName": "Introductory Physics II (0) Selected topics in light, electricity, and magnetism.",
   "type": "(GN)"
  },
  {
   "course": "PLANT 220",
   "courseName": "Gardening for Fun and Profit",
   "credits": 3,
   "description": "Fundamentals of designing, planting and maintaining residential landscapes and edible gardens for students with minimal/intermediate horticulture knowledge.",
   "type": "(GN)"
  },
  {
   "course": "PPEM 120",
   "courseName": "The Fungal Jungle: A Mycological Safari From Truffles to Slime Molds",
   "credits": 3,
   "description": "This course is an introduction to the world of fungi and their impact on humans and the environment around us.",
   "type": "(GN)"
  },
  {
   "course": "R SOC 134",
   "courseName": "Sustainable Agriculture Science and Policy",
   "credits": 3,
   "description": "The science, socio-economics, and politics of managing food and fiber production systems. Sustainability implications of current practices and future options.",
   "type": "(GN)"
  },
  {
   "course": "S T S 055",
   "courseName": "Space Science and Technology",
   "credits": 3,
   "description": "The science and technology of space exploration and exploitation; physical principles; research and development; history, space policy, and social implications.",
   "type": "(GN)"
  },
  {
   "course": "S T S 150",
   "courseName": "Out of the Fiery Furnace",
   "credits": 3,
   "description": "A history of materials, energy, and humans, with emphasis on their interrelationships. For nontechnical students.",
   "type": "(GN;IL)"
  },
  {
   "course": "S T S 201",
   "courseName": "Climate Change, Energy, and Biodiversity",
   "credits": 3,
   "description": "Studies of global warming, energy options, and biodiversity; their interrelations as sciences and as societal issues.",
   "type": "(GN)"
  },
  {
   "course": "SC 200",
   "courseName": "Science in Our World: Certainty and Controversy",
   "credits": 3,
   "description": "A science appreciation course, aimed at making non-scientists more informed consumers of science.",
   "type": "(GN)"
  },
  {
   "course": "SOILS 071",
   "courseName": "Environmental Sustainability",
   "credits": 3,
   "description": "An introduction to environmental science, exploring sustainable human- environment interactions with examples from environmental soil science.",
   "type": "(GN;IL)"
  },
  {
   "course": "SOILS 101",
   "courseName": "Introductory Soil Science",
   "credits": 3,
   "description": "A study of soil properties and processes and relationships to land use, plant growth, environmental quality, and society.",
   "type": "(GN)"
  },
  {
   "course": "VB SC 211",
   "courseName": "The Immune System and Disease",
   "credits": 3,
   "description": "Introduction to the immune system that emphasizes the immune response to infection and consequences of a defective immune response.",
   "type": "(GN)"
  }
 ]
