[{
	"course": "AEE 201",
	"courseName": "Interpersonal Skills for Tomorrow's Leaders",
	"description": "Study of concepts of self identity, values and interpersonal relations as related to professional and personal life.",

	"credits": 3,
	"majors":[""]
},  {
	"course": "AF AM 100",
	"courseName": "Living While Black: Themes in African American Thought and Experience",
	"description": "What it means to be Black in America by engaging with questions about identity and authenticity, freedom and unfreedom, radicalism and reform, gender and sexuality, and the role of music in African American life.",

	"credits": 3,
	"majors":[""]
},  {
	"course": "AFR 110",
	"courseName": "Introduction to Contemporary Africa",
	"description": "Consideration of influences and forces shaping modern African society; analysis of current local and global problems and issues facing Africa.",

	"credits": 3,
	"majors":[""]
},  {
	"course": "AFR 110U",
	"courseName": "Introduction to Contemporary Africa",
	"description": "Consideration of influences and forces shaping modern African society; analysis of current local and global problems and issues facing Africa.",

	"credits": 3,
	"majors":[""]
},  {
	"course": "AFR 202",
	"courseName": "Gender Dynamics in Africa",
	"description": "Critical analysis of multidisciplinary research on relations between men and women in Africa and critique of Western feminist theories.",

	"credits": 3,
	"majors":[""]
},  {
	"course": "AFR 209",
	"courseName": "Poverty in Africa",
	"description": "The course examines the causes, consequences, and dynamics of poverty in African countries.",

	"credits": 3,
	"majors":[""]
},  {
	"course": "AG BM 101",
	"courseName": "Economic Principles of Agribusiness Decision Making",
	"description": "Introduction to economic principles and their application to real world examples of agribusiness management issues.",

	"credits": 3,
	"majors":[""]
},  {
	"course": "AM ST 106",
	"courseName": "The Mass Media and Society",
	"description": "Mass communications in the United States: organization, role, content, and effects of newspapers, magazines, television, radio, books, and films.",

	"credits": 3,
	"majors":[""]
},  {
	"course": "AN SC 215",
	"courseName": "Pets in Society",
	"description": "Introduction to the varied roles that companion animals play in human society and their impact on human activity and well-being.",

	"credits": 3,
	"majors":[""]
},  {
	"course": "ANTH 001",
	"courseName": "Introductory Anthropology",
	"description": "Prehistoric and traditional peoples and cultures; traditional customs and institutions compared with those of modern society.",

	"credits": 3,
	"majors":[""]
},  {
	"course": "ANTH 002",
	"courseName": "Introduction to Archaeology",
	"description": "Survey of basic approaches used by archaeologists to interpret basic prehistoric human cultural patterns.",

	"credits": 3,
	"majors":[""]
},  {
	"course": "ANTH 008",
	"courseName": "Aztecs, Mayas, and Incas",
	"description": "Comparative survey of the development of the pre-Columbian Latin American civilizations.",

	"credits": 3,
	"majors":[""]
},  {
	"course": "ANTH 009",
	"courseName": "Rise of Civilization in the Old World",
	"description": "Evolution of Old World complex societies, especially the first great civilizations of Mesopotamia, Egypt, China, and the Indus Valley.",

	"credits": 3,
	"majors":[""]
},  {
	"course": "ANTH 011",
	"courseName": "Introductory North American Archaeology",
	"description": "Introduction to archaeology of the North American Indians; sites, methods, and results of research interpreted in cultural history.",

	"credits": 3,
	"majors":[""]
},  {
	"course": "ANTH 045",
	"courseName": "Cultural Anthropology",
	"description": "Beginnings of human culture; economic life, society, government, religion, and art among traditional peoples.",

	"credits": 3,
	"majors":[""]
},  {
	"course": "ANTH 045U",
	"courseName": "Cultural Anthropology",
	"description": "Beginnings of human culture; economic life, society, government, religion, and art among traditional peoples.",

	"credits": 3,
	"majors":[""]
},  {
	"course": "ANTH 060",
	"courseName": "Society and Cultures in Modern Israel",
	"description": "An introduction to the society and cultures of the State of Israel from 1948 to the present.",

	"credits": 3,
	"majors":[""]
},  {
	"course": "ANTH 083S",
	"courseName": "First-Year Seminar in Anthropology",
	"description": "This seminar introduces students to anthropology as a scientific discipline with ties to other social and natural sciences.",

	"credits": 3,
	"majors":[""]
},  {
	"course": "ANTH 120",
	"courseName": "First Farmers",
	"description": "Cross-cultural comparison of the origins of plant and animal domestication and the earliest farming societies.",

	"credits": 3,
	"majors":[""]
},  {
	"course": "ANTH 146",
	"courseName": "North American Indians",
	"description": "An introduction to the cultures of the indigenous peoples of North America, north of Mexico, and the effect of contact.",

	"credits": 3,
	"majors":[""]
},  {
	"course": "ANTH 216",
	"courseName": "Sex and Evolution",
	"description": "Introduction to evolutionary theory and its application to understanding human sexuality and sex differences.",

	"credits": 3,
	"majors":[""]
},  {
	"course": "ANTH 222",
	"courseName": "Archaeology of Domesticated Animals",
	"description": "Biological, ecological and cultural history of animal domestication.",

	"credits": 3,
	"majors":[""]
},   {
	"course": "APLNG 083S",
	"courseName": "First-Year Seminar in Applied Linguistics",
	"description": "Introduction to the application of theories of language to cognition, culture, gender, society, and second language acquisition.",

	"credits": 3,
	"majors":[""]
},  {
	"course": "AYFCE 211",
	"courseName": "Foundations: Civic and Community Engagement",
	"description": "Conceptual foundations of public scholarship and orientation to contemporary themes and issues in civic and community engagement.",

	"credits": 3,
	"majors":[""]
},  {
	"course": "AYFCE 211S",
	"courseName": "Foundations: Civic and Community Engagement",
	"description": "Conceptual foundations of public scholarship and orientation to contemporary themes and issues in civic and community engagement.",

	"credits": 3,
	"majors":[""]
},  {
	"course": "B A 100",
	"courseName": "Introduction to Business",
	"description": "A comprehensive view of the contemporary environment of business.",

	"credits": 3,
	"majors":[""]
},  {
	"course": "B A 100S",
	"courseName": "Introduction to Business",
	"description": "A comprehensive view of the contemporary environment of business.",

	"credits": 3,
	"majors":[""]
},  {
	"course": "CAS 083S",
	"courseName": "First-Year Seminar in Speech Communication",
	"description": "Introduction to major theoretical, critical, research and pedagogical issues in human communication.",

	"credits": 3,
	"majors":[""]
},  {
	"course": "CAS 101",
	"courseName": "Introduction to Human Communication",
	"description": "Introduction to major theoretical, critical, research and pedagogical issues in human communication.",

	"credits": 3,
	"majors":[""]
},  {
	"course": "CAS 202",
	"courseName": "Introduction to Communication Theory",
	"description": "Survey of human communication studies in relational, interpersonal, group, organization, intercultural, health, technology and communication systems.",

	"credits": 3,
	"majors":[""]
},  {
	"course": "CAS 203",
	"courseName": "Interpersonal Communication",
	"description": "Exploration of competent communication and the skills necessary to manage personal and professional relationships.",

	"credits": 3,
	"majors":[""]
},  {
	"course": "CAS 222",
	"courseName": "Foundations: Civic and Community Engagement",
	"description": "Conceptual foundations of public scholarship and orientation to contemporary themes and issues in civic and community engagement.",

	"credits": 3,
	"majors":[""]
},   {
	"course": "CED 155",
	"courseName": "Science, Technology and Public Policy",
	"description": "This course will survey the main issues that relate science and technology to public policy.",

	"credits": 3,
	"majors":[""]
},  {
	"course": "CIVCM 211",
	"courseName": "Foundations: Civic and Community Engagement",
	"description": "Conceptual foundations of public scholarship and orientation to contemporary themes and issues in civic and community engagement.",

	"credits": 3,
	"majors":[""]
},  {
	"course": "COMM 100",
	"courseName": "The Mass Media and Society",
	"description": "Mass communications in the United States: organization, role, content, and effects of newspapers, magazines, television, radio, books, and films.",

	"credits": 3,
	"majors":[""]
},  {
	"course": "COMM 100S",
	"courseName": "The Mass Media and Society",
	"description": "Mass communications in the United States: organization, role, content, and effects of newspapers, magazines, television, radio, books, and films.",

	"credits": 3,
	"majors":[""]
},  {
	"course": "COMM 118",
	"courseName": "Introduction to Media Effects",
	"description": "Examination of individuals' selection, uses and perceptions of media and the effects of media on individuals' attitudes, beliefs, and behaviors.",

	"credits": 3,
	"majors":[""]
},  {
	"course": "COMM 180",
	"courseName": "Survey of Electronic Media and Telecommunications",
	"description": "The development of electronic media and telecommunications, emphasizing social, economic, political and global impact.",

	"credits": 3,
	"majors":[""]
},  {
	"course": "COMM 190",
	"courseName": "Gaming and Interactive Media",
	"description": "Introduction to business and social aspects of interactive media, videogame and simulations industries.",

	"credits": 3,
	"majors":[""]
},  {
	"course": "COMM 205",
	"courseName": "Gender, Diversity and the Media",
	"description": "Explores the relationship between media and society through critical analysis of its role in social reality.",

	"credits": 3,
	"majors":[""]
},  {
	"course": "COMM 234",
	"courseName": "Digital Cultures",
	"description": "Introduction to the rapidly changing world of digital cultures, communicative, and social impacts on individuals and institutions.",

	"credits": 3,
	"majors":[""]
},  {
	"course": "CRIM 012",
	"courseName": "Criminology",
	"description": "Explanations and measurements of crime; criminal law; characteristics of criminals and victims; violent property, white-collar, organized, and sexual crimes.",

	"credits": 3,
	"majors":[""]
},  {
	"course": "CRIM 100",
	"courseName": "Introduction to Criminal Justice",
	"description": "Overview of the criminal justice system, including legal foundations, processing and correction of offenders, extent and types of crime, victims.",

	"credits": 3,
	"majors":[""]
},  {
	"course": "CRIM 201",
	"courseName": "Presumed Innocent? Social Science of Wrongful Conviction",
	"description": "Social science of how wrongful convictions occur; disparities in the criminal justice system; risks, factors, and policies.",

	"credits": 3,
	"majors":[""]
},  {
	"course": "CRIMJ 012",
	"courseName": "Criminology",
	"description": "Explanations and measurement of crime; criminal law; characteristics of criminals and victims; violent, property, white-collar, organized, and sexual crimes.",

	"credits": 3,
	"majors":[""]
},  {
	"course": "CRIMJ 013",
	"courseName": "Juvenile Delinquency",
	"description": "Juvenile conduct, causes of delinquency, current methods of treatment; organization and function of agencies concerned with delinquency.",

	"credits": 3,
	"majors":[""]
},  {
	"course": "CRIMJ 083S",
	"courseName": "First-Year Seminar in Criminal Justice",
	"description": "Critical approaches to issues in criminal justice and criminology.",

	"credits": 3,
	"majors":[""]
},  {
	"course": "CRIMJ 100",
	"courseName": "Introduction to Criminal Justice",
	"description": "Overview of the criminal justice system, including legal foundations, processing and correction of offenders, extent and types of crime, victims.",

	"credits": 3,
	"majors":[""]
},  {
	"course": "CSD 269",
	"courseName": "Deaf Culture",
	"description": "Explores the economic, social, psychological, and political aspects of the deaf culture and its interaction with the majority hearing culture.",

	"credits": 3,
	"majors":[""]
},  {
	"course": "ECON 014",
	"courseName": "Principles of Economics",
	"description": "Analysis of the American economy, emphasizing the nature and interrelationships of such groups as consumers, business, governments, labor, and financial institutions. Students who have passed ECON 002 or 004 or are registered in the College of Business Administration may not schedule this course.",

	"credits": 3,
	"majors":[""]
},  {
	"course": "ECON 083S",
	"courseName": "First-Year Seminar in Economics",
	"description": "Experiments in microeconomic principles.",

	"credits": 3,
	"majors":[""]
},  {
	"course": "ECON 102",
	"courseName": "Introductory Microeconomic Analysis and Policy",
	"description": "Methods of economic analysis and their use; price determination; theory of the firm; distribution.",

	"credits": 3,
	"majors":[""]
},  {
	"course": "ECON 104",
	"courseName": "Introductory Macroeconomic Analysis and Policy",
	"description": "National income measurement; aggregate economic models; money and income; policy problems.",

	"credits": 3,
	"majors":[""]
},  {
	"course": "EDPSY 010",
	"courseName": "Individual Differences and Education",
	"description": "Relationships between learner differences and physical, cognitive, language, social, and cultural development; emphasis on ethnicity, gender, special needs; schooling implications.",

	"credits": 3,
	"majors":[""]
},  {
	"course": "EDTHP 115A",
	"courseName": "Competing Rights: Issues in American Education",
	"description": "An examination of educational issues relevant to democratic citizenship; emphasis is on understanding the relationship among politics, schools, and society.",

	"credits": 3,
	"majors":[""]
},  {
	"course": "EDTHP 115S",
	"courseName": "Competing Rights: Issues in American Education",
	"description": "An examination of educational issues relevant to democratic citizenship; emphasis is on understanding the relationship among politics, schools, and society.",

	"credits": 3,
	"majors":[""]
},  {
	"course": "EDTHP 115U",
	"courseName": "Competing Rights: Issues in American Education",
	"description": "An examination of educational issues relevant to democratic citizenship; emphasis is on understanding the relationship among politics, schools, and society.",

	"credits": 3,
	"majors":[""]
},  {
	"course": "EDTHP 200",
	"courseName": "Educational Reform and Public Policy",
	"description": "The course uses an interdisciplinary approach to explore the reforms that shape the nation's largest social institutional-public education.",

	"credits": 3,
	"majors":[""]
},  {
	"course": "EGEE 120",
	"courseName": "Oil: International Evolution",
	"description": "Survey of the commercial development of the world petroleum industry from various international, historical, business, and cultural perspectives.",

	"credits": 3,
	"majors":[""]
},  {
	"course": "EGEE 211",
	"courseName": "Social Legacy of Pennsylvania Coal",
	"description": "Survey of coal technologies with economic, social, and political impacts discussed with historical, cultural, and international perspectives.",

	"credits": 3,
	"majors":[""]
},  {
	"course": "ENVST 100",
	"courseName": "Visions of Nature",
	"description": "An interdisciplinary introduction to environmental studies, including perspectives from ethics, economics, public policy, art, literature, history, geology, biology, and ecology.",

	"credits": 3,
	"majors":[""]
},  {
	"course": "GAME 140",
	"courseName": "Gaming and Interactive Media",
	"description": "Introduction to business and social aspects of interactive media, videogame and simulation industries.",

	"credits": 3,
	"majors":[""]
},  {
	"course": "GEOG 001",
	"courseName": "Global Parks and Sustainability",
	"description": "Introduction to U.S. and global protected areas, with a focus on historical and emerging trends in conservation, sustainability, and socio-ecological systems.",

	"credits": 3,
	"majors":[""]
},  {
	"course": "GEOG 020",
	"courseName": "Human Geography:  An Introduction",
	"description": "Spatial perspective on human societies in a modernizing world; regional examples; use of space and environmental resources; elements of geographic planning.",

	"credits": 3,
	"majors":[""]
},  {
	"course": "GEOG 030",
	"courseName": "Geographic Perspectives on Sustainability and Human-Environment Systems",
	"description": "Introduction to theory, methods, history and contemporary issues in global and regional relationships between human activity and the physical environment.",

	"credits": 3,
	"majors":[""]
},  {
	"course": "GEOG 040",
	"courseName": "World Regional Geography",
	"description": "Introduction to the world as an interdependent community built from unique and independent regions and nations.",

	"credits": 3,
	"majors":[""]
},  {
	"course": "GEOG 120",
	"courseName": "Urban Geography: A Global Perspective",
	"description": "Introduction to the geography of the world's cities and urban system.",

	"credits": 3,
	"majors":[""]
},  {
	"course": "GEOG 123",
	"courseName": "Geography of Developing World",
	"description": "Patterns of poverty in poor countries; conventional and non-conventional explanations; focus on solutions; case studies of specific regions.",

	"credits": 3,
	"majors":[""]
},  {
	"course": "GEOG 124",
	"courseName": "Elements of Cultural Geography",
	"description": "Locational analysis of changes in non-Western cultures. Problems of plural societies, economic development, population growth, and settlement.",

	"credits": 3,
	"majors":[""]
},  {
	"course": "GEOG 126",
	"courseName": "Economic Geography",
	"description": "The geographic location and organization of economic activities and outcomes at global, national, regional, and local scales.",

	"credits": 3,
	"majors":[""]
},  {
	"course": "GEOG 128",
	"courseName": "Geography of International Affairs",
	"description": "Contemporary international affairs in their geographical setting; geographic elements in the development of national power, political groupings, and international disputes.",

	"credits": 3,
	"majors":[""]
},  {
	"course": "GEOG 130",
	"courseName": "Environment, Power, and Justice",
	"description": "This course explores contemporary themes in human-environment relations through the lens of political ecology.",

	"credits": 3,
	"majors":[""]
},  {
	"course": "GEOG 160",
	"courseName": "Mapping Our Changing World",
	"description": "Fundamental concepts of GIS, cartography, remote sensing, and GPS in the context of environmental and social problems.",

	"credits": 3,
	"majors":[""]
},  {
	"course": "GLIS 101",
	"courseName": "Globalization",
	"description": "This course provides a broad introduction to the topic of global studies.",

	"credits": 3,
	"majors":[""]
},  {
	"course": "HD FS 129",
	"courseName": "Introduction to Human Development and Family Studies",
	"description": "Introduction to psychosocial and family development at all stages of the individual and family life cycle. Students may take only one course for General Education credit from SOC 030 or HD FS 129.\n\t\t\t\t  Student may take only one course for General Education      credits from HD FS 129 GS or SOC 030 GS.",

	"credits": 3,
	"majors":[""]
},  {
	"course": "HD FS 129S",
	"courseName": "Introduction to Human Development and Family Studies",
	"description": "Introduction to psychosocial and family development at all stages of the individual and family life cycle.",

	"credits": 3,
	"majors":[""]
},  {
	"course": "HD FS 229",
	"courseName": "Infant and Child Development",
	"description": "Theory, research, and methods of social/behavioral/biological sciences related to developmental processes and intervention during infancy and childhood.",

	"credits": 3,
	"majors":[""]
},  {
	"course": "HD FS 239",
	"courseName": "Adolescent Development",
	"description": "Social, behavioral, and biological development and intervention throughout adolescence.",

	"credits": 3,
	"majors":[""]
},  {
	"course": "HD FS 249",
	"courseName": "Adult Development and Aging",
	"description": "Physiological, psychological, and social development and intervention from young adulthood through old age.",

	"credits": 3,
	"majors":[""]
},  {
	"course": "HD FS 287W",
	"courseName": "Intercultural Community-Building",
	"description": "An experiential introduction to negotiating differences in small groups, families, institutions, and communities.",

	"credits": 3,
	"majors":[""]
},  {
	"course": "HD FS 287Y",
	"courseName": "Intercultural Community-Building",
	"description": "An experiential introduction to negotiating differences in small groups, families, institutions, and communities.",

	"credits": 3,
	"majors":[""]
},  {
	"course": "HIST 116",
	"courseName": "Family and Sex Roles in Modern History",
	"description": "Historical perspectives on the Western family since 1500: gender roles, marriage, sexuality, child rearing, and old age; emphasis on United States.",

	"credits": 3,
	"majors":[""]
},  {
	"course": "HIST 120",
	"courseName": "Europe Since 1848",
	"description": "Political, social, and ideological developments; origin and impact of two World Wars; totalitarianism and democracy; changing role in the world.",

	"credits": 3,
	"majors":[""]
},  {
	"course": "HIST 142",
	"courseName": "History of Communism",
	"description": "Marxism; Leninism and evolution of the Soviet Union; formation and development of the Communist bloc; impact of Chinese Communism.",

	"credits": 3,
	"majors":[""]
},  {
	"course": "HIST 151",
	"courseName": "Technology and Society in American History",
	"description": "Development of technology in America from colonial times; its reception and its influence on social, economic, and political life.",

	"credits": 3,
	"majors":[""]
},  {
	"course": "INTAG 100",
	"courseName": "Introduction to International Agriculture",
	"description": "Ag in developing countries; contemporary crucial issues in global agriculture; emphasizing hunger and food security.",

	"credits": 3,
	"majors":[""]
},  {
	"course": "INTST 100",
	"courseName": "Introduction to International Studies",
	"description": "An introductory multidisciplinary course designed to familiarize students with critical international issues.",

	"credits": 3,
	"majors":[""]
},  {
	"course": "INTST 100S",
	"courseName": "Introduction to International Studies",
	"description": "An introductory multidisciplinary course designed to familiarize students with critical international issues.",

	"credits": 3,
	"majors":[""]
},  {
	"course": "IST 110",
	"courseName": "Information, People and Technology",
	"description": "The use, analysis and design of information systems and technologies to organize, coordinate, and inform human enterprises.",

	"credits": 3,
	"majors":[""]
},  {
	"course": "IST 234",
	"courseName": "Digital Cultures",
	"description": "Introduction to the rapidly changing world of digital cultures, communicative, and social impacts on individuals and institutions.",

	"credits": 3,
	"majors":[""]
},  {
	"course": "J ST 060",
	"courseName": "Society and Cultures in Modern Israel",
	"description": "An introduction to the society and cultures of the State of Israel from 1948 to the present.",

	"credits": 3,
	"majors":[""]
},  {
	"course": "LDT 100",
	"courseName": "World Technologies and Learning",
	"description": "This course explores e-learning in international contexts and the impact of these new learning options on cultures.",

	"credits": 3,
	"majors":[""]
},  {
	"course": "LER 083S",
	"courseName": "First-Year Seminar in Labor Studies and Employment Relations",
	"description": "Critical approaches to the dimensions and direction in Labor and Employment Relations.",

	"credits": 3,
	"majors":[""]
},  {
	"course": "LER 100",
	"courseName": "Employment Relations",
	"description": "Introductory analysis of the employment relationship and of the interrelated interests of managements, workers, unions, and the public.",

	"credits": 3,
	"majors":[""]
},  {
	"course": "LER 201",
	"courseName": "Employment Relationship: Law and Policy",
	"description": "An examination of basic legal principles underlying the employment relationship and their social, political, and economic bases.",

	"credits": 3,
	"majors":[""]
},  {
	"course": "LING 001",
	"courseName": "The Study of Language",
	"description": "A non-technical introduction to the study of human language, and its role in human interaction.  Students who have successfully completed LING 100 may not enroll in LING 001.",

	"credits": 3,
	"majors":[""]
},  {
	"course": "LING 100",
	"courseName": "Foundations of Linguistics",
	"description": "Systematic study of linguistic structures in a variety of the world's languages; an overview of language, and its organization.",

	"credits": 3,
	"majors":[""]
},  {
	"course": "NURS 245",
	"courseName": "Violence and the Impact on Society",
	"description": "Interdisciplinary discussion of violence, its perpetrators, victims and its impact on society as well as possible solutions for violence reduction.",

	"credits": 3,
	"majors":[""]
},  {
	"course": "OLEAD 100",
	"courseName": "Introduction to Leadership",
	"description": "This course introduces key leadership concepts and practices based on current theory and research.  It is designed to help students to discover the knowledge and skills that are characteristic of effective leaders.",

	"credits": 3,
	"majors":[""]
},  {
	"course": "PL SC 001",
	"courseName": "Introduction to American National Government",
	"description": "Introduction to development and nature of American political culture, constitutional/structural arrangements, electoral/policy processes; sources of conflict and consensus.",

	"credits": 3,
	"majors":[""]
},  {
	"course": "PL SC 003",
	"courseName": "Introduction to Comparative Politics",
	"description": "Introduction to study of comparative government and politics:  normative/ empirical theories; government functions in modern societies; representative structures and processes.",

	"credits": 3,
	"majors":[""]
},  {
	"course": "PL SC 003U",
	"courseName": "Introduction to Comparative Politics",
	"description": "Introduction to study of comparative government and politics:  normative/ empirical theories; government functions in modern societies; representative structures and processes.",

	"credits": 3,
	"majors":[""]
},  {
	"course": "PL SC 007",
	"courseName": "Contemporary Political Ideologies",
	"description": "Critical analysis of contemporary political ideologies such as liberalism, conservatism, socialism, anarchism, fascism, feminism, and environmentalism.",

	"credits": 3,
	"majors":[""]
},  {
	"course": "PL SC 010",
	"courseName": "Scientific Study of Politics",
	"description": "This course introduces students to both the scientific study of politics and the way that study advances our understanding of political actors, events, processes, and institutions.",

	"credits": 3,
	"majors":[""]
},  {
	"course": "PL SC 014",
	"courseName": "International Relations",
	"description": "Characteristics of modern nation-states and forces governing their international relations; nationalism; imperialism; diplomacy; current problems of war and peace. Credit will not be given for both this course and INT U 200.",

	"credits": 3,
	"majors":[""]
},  {
	"course": "PL SC 017",
	"courseName": "Introduction to Political Theory",
	"description": "Introduction to basic issues in political theory through analysis of selected major political thinkers.",

	"credits": 3,
	"majors":[""]
},  {
	"course": "PL SC 017W",
	"courseName": "Introduction to Political Theory",
	"description": "Introduction to basic issues in political theory through analysis of selected major political thinkers.",

	"credits": 3,
	"majors":[""]
},  {
	"course": "PL SC 020",
	"courseName": "Comparative Politics--Western Europe",
	"description": "Comparative analysis of political cultures, interest groups, parties, and decision-making processes in principal Western European political systems.",

	"credits": 3,
	"majors":[""]
},  {
	"course": "PL SC 022",
	"courseName": "Politics of the Developing Areas",
	"description": "The impact of colonialism, nationalism, and development policy on the political culture, structure, and transformation of post-colonial regimes.",

	"credits": 3,
	"majors":[""]
},  {
	"course": "PL SC 060",
	"courseName": "Society and Cultures in Modern Israel",
	"description": "An introduction to the society and cultures of the State of Israel from 1948 to the present.",

	"credits": 3,
	"majors":[""]
},  {
	"course": "PL SC 083S",
	"courseName": "First-Year Seminar in Political Science",
	"description": "Exploration of current topics of interest in political science, international relations, and/or political theory.",

	"credits": 3,
	"majors":[""]
},  {
	"course": "PL SC 110",
	"courseName": "Rights in America",
	"description": "This course explores the historical and contemporary struggles of particular groups within American society to expand their rights.",

	"credits": 3,
	"majors":[""]
},  {
	"course": "PL SC 112",
	"courseName": "Ethics in Citizenship, Politics, and Government",
	"description": "An examination of choices we make as citizens, elected officials or people who carry out the work of government.",

	"credits": 3,
	"majors":[""]
},  {
	"course": "PL SC 130",
	"courseName": "American Political Campaigns and Elections",
	"description": "Methods and strategies of American political campaigns: polls, political consultants, parties, and the media.",

	"credits": 3,
	"majors":[""]
},  {
	"course": "PL SC 132",
	"courseName": "The Politics of International Intolerance",
	"description": "Introductory course emphasizing psychological, historical, and political aspects of global intolerance towards minorities.",

	"credits": 3,
	"majors":[""]
},  {
	"course": "PL SC 135",
	"courseName": "The Politics of the Ecological Crisis",
	"description": "The political implications of the increasing scarcity of many of the world's resources.",

	"credits": 3,
	"majors":[""]
},  {
	"course": "PL SC 140",
	"courseName": "Contemporary Controversies in International Relations",
	"description": "Contemporary issues of international security presented rigorously using analytical tools of international relations and political science.",

	"credits": 3,
	"majors":[""]
},  {
	"course": "PL SC 177",
	"courseName": "Politics and Government in Washington DC",
	"description": "(1-3)                                        The course centers on a Spring Break trip to Washington DC, with students meeting on campus before and after the trip.",

	"credits": 1,
	"majors":[""]
},  {
	"course": "PSYCH 083S",
	"courseName": "First-Year Seminar in Psychology",
	"description": "Scientific, societal, and individual implications of contemporary psychological theory.",

	"credits": 3,
	"majors":[""]
},  {
	"course": "PSYCH 100",
	"courseName": "Introductory Psychology",
	"description": "Introduction to general psychology; principles of human behavior and their applications.",

	"credits": 3,
	"majors":[""]
},  {
	"course": "PSYCH 100S",
	"courseName": "Introductory Psychology",
	"description": "Introduction to general psychology; principles of human behavior and their applications.",

	"credits": 3,
	"majors":[""]
},  {
	"course": "PSYCH 230",
	"courseName": "Introduction to Psychologies of Religion",
	"description": "Introduction to major Western psychologies of religion (James, Freud, Jung) and to subsequent extensions of and departures from them.",

	"credits": 3,
	"majors":[""]
},  {
	"course": "R SOC 011",
	"courseName": "Introductory Rural Sociology",
	"description": "Basic sociological concepts applied to rural societal institutions and rural communities; causes and consequences of rural social change.\n\t\t\t\t  Students may take only one course for General Education     credit from R SOC 011 GS or SOC 001 GS.",

	"credits": 3,
	"majors":[""]
},  {
	"course": "RHS 100",
	"courseName": "Introduction to Disability Culture",
	"description": "Social and cultural contexts of disability on both a micro and macro levels will be examined.",

	"credits": 3,
	"majors":[""]
},  {
	"course": "RPTM 120",
	"courseName": "Leisure and Human Behavior",
	"description": "Leisure from historical and contemporary perspectives, including forces shaping leisure behavior, and relationships among leisure, the environment, and social institutions.",

	"credits": 3,
	"majors":[""]
},  {
	"course": "S T S 135",
	"courseName": "The Politics of the Ecological Crisis",
	"description": "The political implications of the increasing scarcity of many of the world's resources.",

	"credits": 3,
	"majors":[""]
},  {
	"course": "S T S 151",
	"courseName": "Technology and Society in American History",
	"description": "Development of technology in America from colonial times; its reception and its influence on social, economic, and political life.",

	"credits": 3,
	"majors":[""]
},  {
	"course": "S T S 200",
	"courseName": "Critical Issues in Science, Technology, and Society",
	"description": "An overview of interactions between science, technology, and society from social sciences and humanities perspectives.",

	"credits": 3,
	"majors":[""]
},  {
	"course": "S T S 200S",
	"courseName": "Critical Issues in Science, Technology, and Society",
	"description": "An overview of interactions between science, technology, and society from social sciences and humanities perspectives.",

	"credits": 3,
	"majors":[""]
},  {
	"course": "S T S 245",
	"courseName": "Globalization, Technology, and Ethics",
	"description": "An investigation of technology and ethics in the globalized world from contemporary, socio-cultural, and historical perspectives.",

	"credits": 3,
	"majors":[""]
},  {
	"course": "SO SC 001",
	"courseName": "Urbanization",
	"description": "An overview of the social sciences, including an interdisciplinary analysis of the urban process.",

	"credits": 3,
	"majors":[""]
},  {
	"course": "SOC 001",
	"courseName": "Introductory Sociology",
	"description": "The nature and characteristics of human societies and social life.\n\t\t\t\t  Students may take only one course for General Education     credit from SOC 001 GS or R SOC 011 GS.",

	"credits": 3,
	"majors":[""]
},  {
	"course": "SOC 001S",
	"courseName": "Introductory Sociology",
	"description": "The nature and characteristics of human societies and social life.",

	"credits": 3,
	"majors":[""]
},  {
	"course": "SOC 001W",
	"courseName": "Introductory Sociology",
	"description": "The nature and characteristics of human societies and social life.",

	"credits": 3,
	"majors":[""]
},  {
	"course": "SOC 003",
	"courseName": "Introductory Social Psychology",
	"description": "The impact of the social environment on perception, attitudes, and behavior.",

	"credits": 3,
	"majors":[""]
},  {
	"course": "SOC 003H",
	"courseName": "Honors Introduction to Social Psychology",
	"description": "This is an honors course that enables students to learn, apply, and evaluate basic social psychology concepts, theories, and research.",

	"credits": 3,
	"majors":[""]
},  {
	"course": "SOC 005",
	"courseName": "Social Problems",
	"description": "Current social problems such as economic, racial, and gender inequalities; social deviance and crime; population, environmental, energy, and health problems.",

	"credits": 3,
	"majors":[""]
},  {
	"course": "SOC 012",
	"courseName": "Criminology",
	"description": "Explanations and measurement of crime; criminal law; characteristics of criminals and victims; violent, property, white-collar, organized, and sexual crimes.",

	"credits": 3,
	"majors":[""]
},  {
	"course": "SOC 013",
	"courseName": "Juvenile Delinquency",
	"description": "Juvenile conduct, causes of delinquency, current methods of treatment; organization and function of agencies concerned with delinquency.",

	"credits": 3,
	"majors":[""]
},  {
	"course": "SOC 015",
	"courseName": "Urban Sociology",
	"description": "City growth and decline; impact of city life on individuals, families, neighborhoods, and government; urban life-styles.",

	"credits": 3,
	"majors":[""]
},  {
	"course": "SOC 019",
	"courseName": "Sociology of Popular Culture",
	"description": "Students are introduced to the sociological study of how popular culture is produced, consumed, and experienced.",

	"credits": 3,
	"majors":[""]
},  {
	"course": "SOC 023",
	"courseName": "Population and Policy Issues",
	"description": "Local, national, and international population trends; basic techniques of demographic analysis; population problems; implications for public planning and policy.",

	"credits": 3,
	"majors":[""]
},  {
	"course": "SOC 030",
	"courseName": "Sociology of the Family",
	"description": "Family structure and interaction; functions of the family as an institution; cross-cultural comparisons. Students may take only one course for General Education credit from SOC 030 or HD FS 129.",

	"credits": 3,
	"majors":[""]
},  {
	"course": "SOC 055",
	"courseName": "Work in Modern Society",
	"description": "The nature of work in varied occupational and organizational settings; current trends and work life in the future.",

	"credits": 3,
	"majors":[""]
},  {
	"course": "SOC 060",
	"courseName": "Society and Cultures in Modern Israel",
	"description": "An introduction to the society and cultures of the State of Israel from 1948 to the present.",

	"credits": 3,
	"majors":[""]
},  {
	"course": "SOC 083S",
	"courseName": "First-Year Seminar in Sociology",
	"description": "Critical approaches to issues in the structure of society.",

	"credits": 3,
	"majors":[""]
},  {
	"course": "SOC 110",
	"courseName": "Sociology of Gender",
	"description": "Changing sex role expectations and behavior for men and women in contemporary society.",

	"credits": 3,
	"majors":[""]
},  {
	"course": "SOC 119",
	"courseName": "Race and Ethnic Relations",
	"description": "Historical patterns and current status of racial and ethnic groups; inequality, competition, and conflict; social movements; government policy.",

	"credits": 4,
	"majors":[""]
},  {
	"course": "SOC 201",
	"courseName": "Presumed Innocent? Social Science of Wrongful Conviction",
	"description": "Social science of how wrongful convictions occur; disparities in the criminal justice system; risks, factors, and policies.",

	"credits": 3,
	"majors":[""]
},  {
	"course": "SOC 209",
	"courseName": "Poverty in Africa",
	"description": "The course examines the causes, consequences, and dynamics of poverty in African countries.",

	"credits": 3,
	"majors":[""]
},  {
	"course": "SRA 111",
	"courseName": "Introduction to Security and Risk Analysis",
	"description": "This introductory course spans areas of security, risk, and analysis covering contexts in government agencies and business organizations.",

	"credits": 3,
	"majors":[""]
},  {
	"course": "SUST 200",
	"courseName": "Foundations of Leadership in Sustainability",
	"description": "Science, ethics, and leadership in social, environmental, and economic sustainability.",

	"credits": 3,
	"majors":[""]
},  {
	"course": "WMNST 001S",
	"courseName": "Introduction to Women's Studies",
	"description": "Interdisciplinary consideration of the scholarly theories and research pertaining to women's experiences and women's status in contemporary American society.",

	"credits": 3,
	"majors":[""]
},  {
	"course": "WMNST 100",
	"courseName": "Introduction to Women's and Gender Studies",
	"description": "Interdisciplinary consideration of the scholarly theories and research pertaining to women's experiences and women's status in contemporary American society.",

	"credits": 3,
	"majors":[""]
},  {
	"course": "WMNST 100U",
	"courseName": "Introduction to Women's and Gender Studies",
	"description": "Interdisciplinary consideration of the scholarly theories and research pertaining to women's experiences and women's status in contemporary American society.",

	"credits": 3,
	"majors":[""]
},  {
	"course": "WMNST 105",
	"courseName": "Living in a Diverse World",
	"description": "Critical perspectives on the relationship between social difference and power, emphasizing gender, race, sexuality, class, and disability.",

	"credits": 3,
	"majors":[""]
},  {
	"course": "WMNST 110",
	"courseName": "Sociology of Gender",
	"description": "Changing sex role expectations and behavior for men and women in contemporary society.",

	"credits": 3,
	"majors":[""]
},  {
	"course": "WMNST 116",
	"courseName": "Family and Sex Roles in Modern History",
	"description": "Historical perspectives on the Western family since 1500: gender roles, marriage, sexuality, child rearing, and old age; emphasis on United States.",

	"credits": 3,
	"majors":[""]
},  {
	"course": "WMNST 200",
	"courseName": "Global Feminisms",
	"description": "This course examines the diverse contents and forms of \"feminism\" worldwide, emphasizing women's engagement with unequal, unjust, impacts of globalization.",

	"credits": 3,
	"majors":[""]
},  {
	"course": "WMNST 202",
	"courseName": "Gender Dynamics in Africa",
	"description": "Critical analysis of multidisciplinary research on relations between men and women in Africa and critique of Western feminist theories.",

	"credits": 3,
	"majors":[""]
},  {
	"course": "WMNST 205",
	"courseName": "Gender, Diversity and the Media",
	"description": "Explores the relationship between media and society through critical analysis of its role in social reality.",

	"credits": 3,
	"majors":[""]
}]